Example: Bayesian inference of a proportion — CoinExample • CalvinBayes
…
CoinExample("HHTTH", geom = geom_col, p = seq(0, 1, by = 0.25), steps = TRUE, results = "data")
#> Converting data to 1, 1, 0, 0, 1
#> # A tibble: 25 x 6
#>        p prior likelihood posterior d         n
#>    <dbl> <dbl>      <dbl>     <dbl> <chr> <int>
#>  1  0      0.2     0         0      1         1
#>  2  0.25   0.2     0.25      0.1    1         1
#>  3  0.5    0.2     0.5       0.2    1         1
#>  4  0.75   0.2     0.75      0.3    1         1
#>  5  1      0.2     1         0.4    1         1
#>  6  0      0       0         0      11        2
#>  7  0.25   0.1     0.0625    0.0333 11        2
#>  8  0.5    0.2     0.25      0.133  11        2
#>  9  0.75   0.3     0.562     0.3    11        2
#> 10  1      0.4     1         0.533  11        2
#> # … with 15 more rows
…
